<?xml version="1.0" standalone="no"?>
<!DOCTYPE svg PUBLIC "-//W3C//DTD SVG 1.1//EN" "http://www.w3.org/Graphics/SVG/1.1/DTD/svg11.dtd">
<svg xmlns="http://www.w3.org/2000/svg">
<metadata>Copyright (C) 2020 by original authors @ fontello.com</metadata>
<defs>
<font id="fontello" horiz-adv-x="1000" >
<font-face font-family="fontello" font-weight="400" font-stretch="normal" units-per-em="1000" ascent="850" descent="-150" />
<missing-glyph horiz-adv-x="1000" />
<glyph glyph-name="left-open" unicode="&#xe75d;" d="M654 682l-297-296 297-297q10-10 10-25t-10-25l-93-93q-11-10-25-10t-25 10l-414 415q-11 10-11 25t11 25l414 414q10 11 25 11t25-11l93-93q10-10 10-25t-10-25z" horiz-adv-x="714.3" />

<glyph glyph-name="right-open" unicode="&#xe75e;" d="M618 361l-414-415q-11-10-25-10t-25 10l-93 93q-11 11-11 25t11 25l296 297-296 296q-11 11-11 25t11 25l93 93q10 11 25 11t25-11l414-414q10-11 10-25t-10-25z" horiz-adv-x="714.3" />

<glyph glyph-name="paw" unicode="&#xf1b0;" d="M435 587q0-34-10-64t-35-51-59-22q-42 0-77 32t-51 76-17 84q0 33 10 63t36 52 58 22q43 0 78-32t51-76 16-84z m-191-270q0-45-23-77t-66-33q-43 0-79 31t-56 74-20 85q0 45 23 78t67 33q42 0 79-31t56-75 19-85z m220 15q66 0 143-54t127-132 52-142q0-26-10-43t-27-25-36-12-42-3q-38 0-105 25t-102 26q-36 0-107-25t-112-25q-102 0-102 82 0 48 31 106t78 108 105 81 107 33z m134 118q-34 0-59 22t-35 51-11 64q0 41 17 84t51 76 77 32q34 0 59-22t35-52 11-63q0-41-17-84t-51-76-77-32z m241 58q43 0 66-33t24-78q0-41-20-85t-56-74-79-31q-43 0-66 33t-24 77q0 41 20 85t56 75 79 31z" horiz-adv-x="928.6" />

<glyph glyph-name="twitter-squared" unicode="&#xf304;" d="M714 510q-31-14-67-19 38 22 52 65-37-21-75-28-34 36-85 36-49 0-83-34t-35-83q0-16 3-27-72 4-135 37t-107 86q-16-28-16-59 0-64 51-98-27 1-56 15v-1q0-42 28-75t68-40q-16-5-28-5-7 0-22 3 12-36 42-59t67-23q-64-50-145-50-15 0-28 2 82-53 180-53 62 0 117 20t94 53 67 76 42 91 13 94q0 10 0 15 35 25 58 61z m143 108v-536q0-66-47-113t-114-48h-535q-67 0-114 48t-47 113v536q0 66 47 113t114 48h535q67 0 114-48t47-113z" horiz-adv-x="857.1" />

<glyph glyph-name="facebook-squared" unicode="&#xf308;" d="M696 779q67 0 114-48t47-113v-536q0-66-47-113t-114-48h-104v333h111l16 129h-127v83q0 31 13 46t51 16l68 1v115q-35 5-100 5-75 0-121-44t-45-127v-95h-112v-129h112v-333h-297q-67 0-114 48t-47 113v536q0 66 47 113t114 48h535z" horiz-adv-x="857.1" />

<glyph glyph-name="instagram-1" unicode="&#xf32d;" d="M690 350q0 26-6 50l176 0 0-344q0-56-39-96t-95-40l-592 0q-56 0-95 40t-39 96l0 344 174 0q-4-32-4-50 0-106 76-183t184-77q106 0 183 77t77 183z m36 430q56 0 95-39t39-95l0-146-218 0q-78 110-212 110-138 0-212-110l-218 0 0 146q0 56 39 95t95 39l592 0z m64-166l0 72q0 24-24 24l-72 0q-24 0-24-24l0-72q0-8 7-16t17-8l72 0q24 0 24 24z m-200-264q0-66-47-113t-113-47-113 47-47 113q0 68 47 114t113 46 113-46 47-114z" horiz-adv-x="860" />
</font>
</defs>
</svg>